<svg width="15" height="15" viewBox="0 0 15 15" fill="none" xmlns="http://www.w3.org/2000/svg">
<circle cx="7.5" cy="7.5" r="7.5" fill="#FF6905"/>
<path d="M9.70506 6.90191C10.0983 7.10528 10.0983 7.61371 9.70506 7.81708L6.16582 9.64742C5.77257 9.85079 5.28101 9.59657 5.28101 9.18983L5.28101 5.52916C5.28101 5.12242 5.77257 4.86821 6.16582 5.07158L9.70506 6.90191Z" fill="white"/>
</svg>
